…
``` r
city_prop_test_results = city_summary  |> 
  mutate(
    prop_test_result = map2(unsolved_homicides, total_homicides, ~prop.test(x = .x, n = .y)),
# run prop.test for each of the cities in your dataset
    tidy_result = map(prop_test_result, broom::tidy)
  ) |>
  select(city, tidy_result) |>
  unnest(tidy_result) |>
  select(-statistic, -p.value,-parameter, -method, -alternative) 
# create a tidy dataframe with estimated proportions and CIs for each city
print(city_prop_test_results)
```

    ## # A tibble: 50 × 4
    ##    city        estimate conf.low conf.high
    ##    <chr>          <dbl>    <dbl>     <dbl>
    ##  1 Albuquerque    0.386    0.337     0.438
    ##  2 Atlanta        0.383    0.353     0.415
    ##  3 Baltimore      0.646    0.628     0.663
    ##  4 Baton Rouge    0.462    0.414     0.511
    ##  5 Birmingham     0.434    0.399     0.469
    ##  6 Boston         0.505    0.465     0.545
    ##  7 Buffalo        0.612    0.569     0.654
    ##  8 Charlotte      0.300    0.266     0.336
    ##  9 Chicago        0.736    0.724     0.747
    ## 10 Cincinnati     0.445    0.408     0.483
    ## # ℹ 40 more rows
…
